{
    "all-about-tor" : 
    {
        "label" : "All About Tor",
        "name" : "all-about-tor",
        "filename" : "all-about-tor-full-pack",
        "formats" : ["odp","pdf"],
        "description" : "Full set of slides for Tor Trainings",
        "date" : "2021"
    },

    "todo sobre tor" :
    {
        "label" : "Todo sobre Tor",
        "name" : "all-about-tor",
        "filename" : "all-about-tor-full-pack+es",
        "formats" : ["odp"],
        "description" : "Un conjunto completo de diapositivas para los entrenamientos de Tor",
        "date" : "2019"
    },

    "tor network" :
    {
        "label" : "The Tor network",
        "name" : "tor-network",
        "filename" : "tor-network",
        "formats" : ["odp","pdf"],
        "description" : "Learn about the Tor network and how to run a relay",
        "date" : "2019"
    },

    "Private bridges workshop" :
    {
        "label" : "Running Tor bridges",
        "name" : "private-bridges",
        "filename" : "private-bridges-workshop",
        "formats" : ["odp","pdf"],
        "description" : "Learn how to run a private unlisted Tor bridge",
        "date" : "2021"
    },

    "Introduction to Onion Services" :
    {
        "label" : "Brief introduction to Tor and Onion Services",
        "name" : "onion-services",
        "filename" : "intro-onion-service-2022",
        "formats" : ["odp","pdf"],
        "description" : "Learn about onion services and their benefits",
        "date" : "2022"
    },

    "helping survivors" :
    {
        "label" : "Helping survivors",
        "name" : "help-survivors",
        "filename" : "help-survivors",
        "formats" : ["odp","pdf"],
        "description" : "A digital security guide for organizations helping survivors.",
        "date" : "2021"
    }

}
